{"products":[{"createdAt":"2025-08-01T21:29:45.871Z","updatedAt":"2025-11-17T08:27:11.212Z","id":2832,"title":"AGUSTI TORELLO MATA BRUT RESERVA Ecológico - DO CAVA - PENEDES | CATALUÑA 2021","description":"35% Macabeo \n28%Xarel-lo \n37% Parellada\n\nCrianza de cerca 36 meses en botella sobre sus lías\n\nCalificación: PÑ 90","basePrice":"125000.00","stock":60,"images":["https://firebasestorage.googleapis.com/v0/b/totalpedidosv2.firebasestorage.app/o/products%2F1755140678212_AGUSTI%20TORELLO%20MATA%20BRUT%20RESERVA%20Ecol%C3%B3gico%20-%20DO%20CAVA.jpg?alt=media&token=446b79b0-adde-4f40-a937-ca295e8fd433"],"sku":"VIESAGTOMA1","enabled":true,"taxes":[],"categories":[{"id":190,"name":"CAVA ESPAÑA","description":"","imageUrl":null,"position":1}],"discounts":[],"store":{"id":"siete","name":"SIETE","description":"Aqui tu descripcion de la tienda","phonePrefix":"+57","phoneNumber":"0000000000"},"children":[],"discountPrice":0,"netPrice":125000,"taxPrice":0,"priceWithTax":"125000.000","totalPrice":125000,"isParentProduct":false,"canAddToCart":true,"hasStock":true,"firstImageUrl":"https://firebasestorage.googleapis.com/v0/b/totalpedidosv2.firebasestorage.app/o/products%2F1755140678212_AGUSTI%20TORELLO%20MATA%20BRUT%20RESERVA%20Ecol%C3%B3gico%20-%20DO%20CAVA.jpg?alt=media&token=446b79b0-adde-4f40-a937-ca295e8fd433","displayPrice":125000}],"total":78,"currentPage":1,"totalPages":78}